5 Advanced data manipulation & visualization – EEB313: Quantitative Methods in R for Biology
…
surveys <- readr::read_csv('data/portal_data.csv')

Rows: 34786 Columns: 13
── Column specification ────────────────────────────────────────────────────────
Delimiter: ","
chr (6): species_id, sex, genus, species, taxa, plot_type
dbl (7): record_id, month, day, year, plot_id, hindfoot_length, weight

ℹ Use `spec()` to retrieve the full column specification for this data.
ℹ Specify the column types or set `show_col_types = FALSE` to quiet this message.

surveys

# A tibble: 34,786 × 13
   record_id month   day  year plot_id species_id sex   hindfoot_length weight
       <dbl> <dbl> <dbl> <dbl>   <dbl> <chr>      <chr>           <dbl>  <dbl>
 1         1     7    16  1977       2 NL         M                  32     NA
 2        72     8    19  1977       2 NL         M                  31     NA
 3       224     9    13  1977       2 NL         <NA>               NA     NA
 4       266    10    16  1977       2 NL         <NA>               NA     NA
 5       349    11    12  1977       2 NL         <NA>               NA     NA
 6       363    11    12  1977       2 NL         <NA>               NA     NA
 7       435    12    10  1977       2 NL         <NA>               NA     NA
 8       506     1     8  1978       2 NL         <NA>               NA     NA
 9       588     2    18  1978       2 NL         M                  NA    218
10       661     3    11  1978       2 NL         <NA>               NA     NA
# ℹ 34,776 more rows
# ℹ 4 more variables: genus <chr>, species <chr>, taxa <chr>, plot_type <chr>
…
5.3 Visualizing data with other plot types

In this section, we’ll explore a few more types of plots we can make in ggplot.

First, let’s go back to the originally-imported data and just count the total number of times each species was observed. We need to group the data and count records within each group:

surveys %>% 
  group_by(species_latin) %>%
  tally()%>%
  arrange(desc(n)) # Adding arrange just to compare with histogram

# A tibble: 48 × 2
   species_latin                 n
   <chr>                     <int>
 1 Dipodomys merriami        10596
 2 Chaetodipus penicillatus   3123
 3 Dipodomys ordii            3027
 4 Chaetodipus baileyi        2891
 5 Reithrodontomys megalotis  2609
 6 Dipodomys spectabilis      2504
 7 Onychomys torridus         2249
 8 Perognathus flavus         1597
 9 Peromyscus eremicus        1299
10 Neotoma albigula           1252
# ℹ 38 more rows
…
From this latest version, we can see there’s a huge number of species (over 30!) that were observed less than 100 times over the entire 4 decade study period. These are the ones we might want to filter out going forward, since there’s probably too little data to to interpret trends. Using the value of 800 observations as a cut off for filtering (what we did previously) seems reasonable!

Now, since this was a longitudinal study, let’s calculate the number of counts per year for each species. First, we need to group the data and count records within each group:

yearly_counts <- surveys %>%
    group_by(year, species_latin) %>%
    tally() %>%
    arrange(desc(n)) # Adding arrange just to compare with histogram

yearly_counts

# A tibble: 509 × 3
# Groups:   year [26]
    year species_latin           n
   <dbl> <chr>               <int>
 1  2002 Chaetodipus baileyi   892
 2  1985 Dipodomys merriami    667
 3  1982 Dipodomys merriami    609
 4  1997 Dipodomys merriami    576
 5  1981 Dipodomys merriami    559
 6  2000 Chaetodipus baileyi   555
 7  2001 Chaetodipus baileyi   538
 8  1983 Dipodomys merriami    528
 9  1998 Dipodomys merriami    503
10  1980 Dipodomys merriami    493
# ℹ 499 more rows
…
The facet_wrap function creates a new subplot for each value of the variable passed to it (~name). You can control the number of rows and columns as well as lots of other options.

Now we would like to split the line in each plot by the sex of each individual measured. To do that we need to make counts in the data frame after grouping by year, species_latin, and sex, so we are going to redo our earlier filtering, preserving the breakdown by sex:

yearly_counts_by_sex_abun <- surveys %>%
    group_by(year, species_latin, sex) %>%
    tally() %>% 
    group_by(species_latin) %>%
    mutate(n_tot_species=sum(n)) %>% # new column containing total observations per species
    filter(n_tot_species>800) %>%
    select(-n_tot_species)

yearly_counts_by_sex_abun

# A tibble: 687 × 4
# Groups:   species_latin [12]
    year species_latin            sex       n
   <dbl> <chr>                    <chr> <int>
 1  1977 Chaetodipus penicillatus F         4
 2  1977 Chaetodipus penicillatus M         3
 3  1977 Dipodomys merriami       F       104
 4  1977 Dipodomys merriami       M       152
 5  1977 Dipodomys merriami       <NA>      8
 6  1977 Dipodomys ordii          F        10
 7  1977 Dipodomys ordii          M         2
 8  1977 Dipodomys spectabilis    F        58
 9  1977 Dipodomys spectabilis    M        34
10  1977 Dipodomys spectabilis    <NA>      6
# ℹ 677 more rows
…
5.5.3 Long to Wide with pivot_wider

Let’s start by using dplyr to create a data frame with the mean body weight of each genus by plot.

surveys_gw <- surveys %>%
    filter(!is.na(weight)) %>%
    group_by(genus, plot_id) %>%
    summarize(mean_weight = mean(weight))

`summarise()` has grouped output by 'genus'. You can override using the
`.groups` argument.

surveys_gw

# A tibble: 196 × 3
# Groups:   genus [10]
   genus       plot_id mean_weight
   <chr>         <dbl>       <dbl>
 1 Baiomys           1        7   
 2 Baiomys           2        6   
 3 Baiomys           3        8.61
 4 Baiomys           5        7.75
 5 Baiomys          18        9.5 
 6 Baiomys          19        9.53
 7 Baiomys          20        6   
 8 Baiomys          21        6.67
 9 Chaetodipus       1       22.2 
10 Chaetodipus       2       25.1 
# ℹ 186 more rows

Now, to make this long data wide, we use pivot_wider() from tidyr to spread out the different taxa into columns. pivot_wider() takes 3 arguments: the data , the names_from column variable that will eventually become the column names, and the values_from column variable that will fill in the values. We’ll use a pipe so we don’t need to explicitly supply the data argument.

surveys_gw_wide <- surveys_gw %>% 
  pivot_wider(names_from = genus, values_from = mean_weight)

surveys_gw_wide

# A tibble: 24 × 11
   plot_id Baiomys Chaetodipus Dipodomys Neotoma Onychomys Perognathus
     <dbl>   <dbl>       <dbl>     <dbl>   <dbl>     <dbl>       <dbl>
 1       1    7           22.2      60.2    156.      27.7        9.62
 2       2    6           25.1      55.7    169.      26.9        6.95
 3       3    8.61        24.6      52.0    158.      26.0        7.51
 4       5    7.75        18.0      51.1    190.      27.0        8.66
 5      18    9.5         26.8      61.4    149.      26.6        8.62
 6      19    9.53        26.4      43.3    120       23.8        8.09
 7      20    6           25.1      65.9    155.      25.2        8.14
 8      21    6.67        28.2      42.7    138.      24.6        9.19
 9       4   NA           23.0      57.5    164.      28.1        7.82
10       6   NA           24.9      58.6    180.      25.9        7.81
# ℹ 14 more rows
# ℹ 4 more variables: Peromyscus <dbl>, Reithrodontomys <dbl>, Sigmodon <dbl>,
#   Spermophilus <dbl>

Now we can go back to our original question: what is the relationship between mean weights of different genera across all plots? We can easily see the weights for each genus in each plot! Notice that some genera have NA values. That’s because some genera were not recorded in that plot.

5.5.4 Wide to long with pivot_longer

What if we had the opposite problem, and wanted to go from a wide to long format? For that, we can use pivot_longer() to gather a set of columns into one key-value pair. To go backwards from surveys_gw_wide, we should exclude plot_id.

pivot_longer() takes 4 arguments: the data, the names_to column variable that comes from the column names, the values_to column with the values, and cols which specifies which columns we want to keep or drop. Again, we will pipe from the dataset so we don’t have to specify the data argument:

surveys_gw_long <- surveys_gw_wide %>% 
  pivot_longer(names_to = "genus", values_to = "mean_weight", cols = -plot_id)

surveys_gw_long

# A tibble: 240 × 3
   plot_id genus           mean_weight
     <dbl> <chr>                 <dbl>
 1       1 Baiomys                7   
 2       1 Chaetodipus           22.2 
 3       1 Dipodomys             60.2 
 4       1 Neotoma              156.  
 5       1 Onychomys             27.7 
 6       1 Perognathus            9.62
 7       1 Peromyscus            22.2 
 8       1 Reithrodontomys       11.4 
 9       1 Sigmodon              NA   
10       1 Spermophilus          NA   
# ℹ 230 more rows

If the columns are directly adjacent as they are here, we don’t even need to list the all out: we can just use the : operator, as before.

surveys_gw_wide %>% 
  pivot_longer(names_to = "genus", values_to = "mean_weight", cols = Baiomys:Spermophilus)

# A tibble: 240 × 3
   plot_id genus           mean_weight
     <dbl> <chr>                 <dbl>
 1       1 Baiomys                7   
 2       1 Chaetodipus           22.2 
 3       1 Dipodomys             60.2 
 4       1 Neotoma              156.  
 5       1 Onychomys             27.7 
 6       1 Perognathus            9.62
 7       1 Peromyscus            22.2 
 8       1 Reithrodontomys       11.4 
 9       1 Sigmodon              NA   
10       1 Spermophilus          NA   
# ℹ 230 more rows
…
