EEB313: Quantitative Methods in R for Biology - 3 Data wrangling!
…
You can also group by multiple columns:

surveys %>%
    filter(!is.na(weight) & !is.na(sex)) %>%
    group_by(genus, sex) %>%
    summarize(mean_weight = mean(weight))

`summarise()` has grouped output by 'genus'. You can override using the
`.groups` argument.

# A tibble: 28 × 3
# Groups:   genus [10]
   genus       sex   mean_weight
   <chr>       <chr>       <dbl>
 1 Baiomys     "F"          9.16
 2 Baiomys     "M"          7.36
 3 Chaetodipus ""          19.8 
 4 Chaetodipus "F"         23.8 
 5 Chaetodipus "M"         24.7 
 6 Dipodomys   ""          81.4 
 7 Dipodomys   "F"         55.2 
 8 Dipodomys   "M"         56.2 
 9 Neotoma     ""         168.  
10 Neotoma     "F"        154.  
# ℹ 18 more rows
…
filtered_surveys <- surveys %>%
    filter(!is.na(weight) & !is.na(sex)) %>%
    group_by(genus, sex)

If you want to display more data, you can use the print() function at the end of your chain with the argument n specifying the number of rows to display.

filtered_surveys %>%
    summarize(mean_weight = mean(weight)) %>%
    print(n = 15) # Will change the knitted output, not the notebook

`summarise()` has grouped output by 'genus'. You can override using the
`.groups` argument.

# A tibble: 28 × 3
# Groups:   genus [10]
   genus       sex   mean_weight
   <chr>       <chr>       <dbl>
 1 Baiomys     "F"          9.16
 2 Baiomys     "M"          7.36
 3 Chaetodipus ""          19.8 
 4 Chaetodipus "F"         23.8 
 5 Chaetodipus "M"         24.7 
 6 Dipodomys   ""          81.4 
 7 Dipodomys   "F"         55.2 
 8 Dipodomys   "M"         56.2 
 9 Neotoma     ""         168.  
10 Neotoma     "F"        154.  
11 Neotoma     "M"        166.  
12 Onychomys   ""          23.4 
13 Onychomys   "F"         26.8 
14 Onychomys   "M"         26.2 
15 Perognathus ""           6   
# ℹ 13 more rows

Once the data are grouped, you can also summarize multiple variables at the same time. For instance, we could add a column indicating the minimum weight for each species for each sex:

filtered_surveys %>%
    summarize(mean_weight = mean(weight),
              min_weight = min(weight))

`summarise()` has grouped output by 'genus'. You can override using the
`.groups` argument.

# A tibble: 28 × 4
# Groups:   genus [10]
   genus       sex   mean_weight min_weight
   <chr>       <chr>       <dbl>      <int>
 1 Baiomys     "F"          9.16          6
 2 Baiomys     "M"          7.36          6
 3 Chaetodipus ""          19.8          10
 4 Chaetodipus "F"         23.8           5
 5 Chaetodipus "M"         24.7           4
 6 Dipodomys   ""          81.4          24
 7 Dipodomys   "F"         55.2          10
 8 Dipodomys   "M"         56.2          12
 9 Neotoma     ""         168.           83
10 Neotoma     "F"        154.           32
# ℹ 18 more rows
…
Here, tally() is the action applied to the groups created by group_by() and counts the total number of records for each category.

If there are many groups, tally() is not that useful on its own. For example, when we want to view the five most abundant species among the observations:

surveys %>%
    group_by(species) %>%
    tally()

# A tibble: 40 × 2
   species             n
   <chr>           <int>
 1 albigula         1252
 2 audubonii          75
 3 baileyi          2891
 4 bilineata         303
 5 brunneicapillus    50
 6 chlorurus          39
 7 clarki              1
 8 eremicus         1299
 9 flavus           1597
10 fulvescens         75
# ℹ 30 more rows

Since there are 40 rows in this output, we would like to order the table to display the most abundant species first. In dplyr, we say that we want to arrange() the data.

surveys %>%
    group_by(species) %>%
    tally() %>%
    arrange(n)

# A tibble: 40 × 2
   species          n
   <chr>        <int>
 1 clarki           1
 2 scutalatus       1
 3 tereticaudus     1
 4 tigris           1
 5 uniparens        1
 6 viridis          1
 7 leucophrys       2
 8 savannarum       2
 9 fuscus           5
10 undulatus        5
# ℹ 30 more rows
…
3.5.4 Wide to long with gather and pivot_longer

What if we had the opposite problem, and wanted to go from a wide to long format? For that, we can use pivot_longer() to gather a set of columns into one key-value pair. To go backwards from surveys_gw_wide, we should exclude plot_id.

pivot_longer() takes 4 arguments: the data, the names_to column variable that comes from the column names, the values_to column with the values, and cols which specifies which columns we want to keep or drop. Again, we will pipe from the dataset so we don’t have to specify the data argument:

surveys_gw_long2 <- surveys_gw_wide %>% 
  pivot_longer(names_to = "genus", values_to = "mean_weight", cols = -plot_id)

surveys_gw_long2

# A tibble: 240 × 3
   plot_id genus           mean_weight
     <int> <chr>                 <dbl>
 1       1 Baiomys                7   
 2       1 Chaetodipus           22.2 
 3       1 Dipodomys             60.2 
 4       1 Neotoma              156.  
 5       1 Onychomys             27.7 
 6       1 Perognathus            9.62
 7       1 Peromyscus            22.2 
 8       1 Reithrodontomys       11.4 
 9       1 Sigmodon              NA   
10       1 Spermophilus          NA   
# ℹ 230 more rows

If the columns are directly adjacent as they are here, we don’t even need to list the all out: we can just use the : operator, as before.

surveys_gw_wide %>% 
  pivot_longer(names_to = "genus", values_to = "mean_weight", cols = Baiomys:Sigmodon)

# A tibble: 216 × 4
   plot_id Spermophilus genus           mean_weight
     <int>        <dbl> <chr>                 <dbl>
 1       1           NA Baiomys                7   
 2       1           NA Chaetodipus           22.2 
 3       1           NA Dipodomys             60.2 
 4       1           NA Neotoma              156.  
 5       1           NA Onychomys             27.7 
 6       1           NA Perognathus            9.62
 7       1           NA Peromyscus            22.2 
 8       1           NA Reithrodontomys       11.4 
 9       1           NA Sigmodon              NA   
10       2           NA Baiomys                6   
# ℹ 206 more rows
…
