3 Manipulating and analyzing data – EEB313: Quantitative Methods in R for Biology
…
Rows: 34786 Columns: 13
── Column specification ────────────────────────────────────────────────────────
Delimiter: ","
chr (6): species_id, sex, genus, species, taxa, plot_type
dbl (7): record_id, month, day, year, plot_id, hindfoot_length, weight

ℹ Use `spec()` to retrieve the full column specification for this data.
ℹ Specify the column types or set `show_col_types = FALSE` to quiet this message.

This statement produces some output regarding which data type it found in each column. If we want to check this in more detail, we can print the variable’s value: surveys.

surveys

# A tibble: 34,786 × 13
   record_id month   day  year plot_id species_id sex   hindfoot_length weight
       <dbl> <dbl> <dbl> <dbl>   <dbl> <chr>      <chr>           <dbl>  <dbl>
 1         1     7    16  1977       2 NL         M                  32     NA
 2        72     8    19  1977       2 NL         M                  31     NA
 3       224     9    13  1977       2 NL         <NA>               NA     NA
 4       266    10    16  1977       2 NL         <NA>               NA     NA
 5       349    11    12  1977       2 NL         <NA>               NA     NA
 6       363    11    12  1977       2 NL         <NA>               NA     NA
 7       435    12    10  1977       2 NL         <NA>               NA     NA
 8       506     1     8  1978       2 NL         <NA>               NA     NA
 9       588     2    18  1978       2 NL         M                  NA    218
10       661     3    11  1978       2 NL         <NA>               NA     NA
# ℹ 34,776 more rows
# ℹ 4 more variables: genus <chr>, species <chr>, taxa <chr>, plot_type <chr>
…
# A tibble: 1 × 1
  record_id
      <dbl>
1         1

surveys[1, 6]   # first element in the 6th column

# A tibble: 1 × 1
  species_id
  <chr>     
1 NL        

surveys[, 1]    # first column in the data frame

# A tibble: 34,786 × 1
   record_id
       <dbl>
 1         1
 2        72
 3       224
 4       266
 5       349
 6       363
 7       435
 8       506
 9       588
10       661
# ℹ 34,776 more rows

surveys[1]      # first column in the data frame

# A tibble: 34,786 × 1
   record_id
       <dbl>
 1         1
 2        72
 3       224
 4       266
 5       349
 6       363
 7       435
 8       506
 9       588
10       661
# ℹ 34,776 more rows
…
# We can test if all elements are the same
0:10 == seq(0,10)

 [1] TRUE TRUE TRUE TRUE TRUE TRUE TRUE TRUE TRUE TRUE TRUE

all(0:10 == seq(0,10))

[1] TRUE

You can also exclude certain parts of a data frame using the “-” sign:

surveys[,-1]    # All columns, except the first

# A tibble: 34,786 × 12
   month   day  year plot_id species_id sex   hindfoot_length weight genus  
   <dbl> <dbl> <dbl>   <dbl> <chr>      <chr>           <dbl>  <dbl> <chr>  
 1     7    16  1977       2 NL         M                  32     NA Neotoma
 2     8    19  1977       2 NL         M                  31     NA Neotoma
 3     9    13  1977       2 NL         <NA>               NA     NA Neotoma
 4    10    16  1977       2 NL         <NA>               NA     NA Neotoma
 5    11    12  1977       2 NL         <NA>               NA     NA Neotoma
 6    11    12  1977       2 NL         <NA>               NA     NA Neotoma
 7    12    10  1977       2 NL         <NA>               NA     NA Neotoma
 8     1     8  1978       2 NL         <NA>               NA     NA Neotoma
 9     2    18  1978       2 NL         M                  NA    218 Neotoma
10     3    11  1978       2 NL         <NA>               NA     NA Neotoma
# ℹ 34,776 more rows
# ℹ 3 more variables: species <chr>, taxa <chr>, plot_type <chr>
…
As well as using numeric values to subset a data.frame (or matrix), columns can be called by name, using one of the four following notations: 

surveys["species_id"]       # Result is a data.frame

# A tibble: 34,786 × 1
   species_id
   <chr>     
 1 NL        
 2 NL        
 3 NL        
 4 NL        
 5 NL        
 6 NL        
 7 NL        
 8 NL        
 9 NL        
10 NL        
# ℹ 34,776 more rows

surveys[, "species_id"]     # Result is a data.frame

# A tibble: 34,786 × 1
   species_id
   <chr>     
 1 NL        
 2 NL        
 3 NL        
 4 NL        
 5 NL        
 6 NL        
 7 NL        
 8 NL        
 9 NL        
10 NL        
# ℹ 34,776 more rows
…
# To save to newly created directory
write_csv(surveys_complete_naomit, 
          file.path("Processed data", 
                    "surveys_complete_naomit.csv"))

3.6 Data wrangling with dplyr

Wrangling here is used in the sense of maneuvering, managing, controlling, and turning your data upside down and inside out to look at it from different angles in order to understand it. The package dplyr provides easy tools for the most common data manipulation tasks. It is built to work directly with data frames, with many common tasks optimized by being written in a compiled language (C++), this means that many operations run much faster than similar tools in R. An additional feature is the ability to work directly with data stored in an external database, such as SQL-databases. The ability to work with databases is great because you are able to work with much bigger datasets (100s of GB) than your computer could normally handle. We will not talk in detail about this in class, but there are great resources online to learn more (e.g. this lecture from Data Carpentry).

3.6.1 Selecting columns and filtering rows

We’re going to learn some of the most common dplyr functions: select(), filter(), mutate(), group_by(), and summarise(). To select columns of a data frame, use select(). The first argument to this function is the data frame (surveys), and the subsequent arguments are the columns to keep. Note that we don’t need quotation marks around the column names here like with did with base R. You do still need quotation marks around strings, though!

# A tibble: 34,786 × 4
   plot_id species_id weight  year
     <dbl> <chr>       <dbl> <dbl>
 1       2 NL             NA  1977
 2       2 NL             NA  1977
 3       2 NL             NA  1977
 4       2 NL             NA  1977
 5       2 NL             NA  1977
 6       2 NL             NA  1977
 7       2 NL             NA  1977
 8       2 NL             NA  1978
 9       2 NL            218  1978
10       2 NL             NA  1978
# ℹ 34,776 more rows

To choose rows based on a specific criteria, use filter():

# A tibble: 1,180 × 13
   record_id month   day  year plot_id species_id sex   hindfoot_length weight
       <dbl> <dbl> <dbl> <dbl>   <dbl> <chr>      <chr>           <dbl>  <dbl>
 1     22314     6     7  1995       2 NL         M                  34     NA
 2     22728     9    23  1995       2 NL         F                  32    165
 3     22899    10    28  1995       2 NL         F                  32    171
 4     23032    12     2  1995       2 NL         F                  33     NA
 5     22003     1    11  1995       2 DM         M                  37     41
 6     22042     2     4  1995       2 DM         F                  36     45
 7     22044     2     4  1995       2 DM         M                  37     46
 8     22105     3     4  1995       2 DM         F                  37     49
 9     22109     3     4  1995       2 DM         M                  37     46
10     22168     4     1  1995       2 DM         M                  36     48
# ℹ 1,170 more rows
# ℹ 4 more variables: genus <chr>, species <chr>, taxa <chr>, plot_type <chr>
…
[1] FALSE

Finally, the %in% operator is used to check for membership:

2 %in% c(2, 3, 4) # check whether 2 in c(2, 3, 4)

[1] TRUE

All of the above conditionals are compatible with filter, with the key difference being that filter expects column names as part of conditional statements instead of individual numbers.

3.6.2 Chaining functions together using pipes

But what if you wanted to select and filter at the same time? There are three ways to do this: use intermediate steps, nested functions, or pipes. With intermediate steps, you essentially create a temporary data frame and use that as input to the next function. This can clutter up your workspace with lots of objects:

# A tibble: 1,180 × 4
   plot_id species_id weight  year
     <dbl> <chr>       <dbl> <dbl>
 1       2 NL             NA  1995
 2       2 NL            165  1995
 3       2 NL            171  1995
 4       2 NL             NA  1995
 5       2 DM             41  1995
 6       2 DM             45  1995
 7       2 DM             46  1995
 8       2 DM             49  1995
 9       2 DM             46  1995
10       2 DM             48  1995
# ℹ 1,170 more rows

You can also nest functions (i.e. one function inside of another). This is handy, but can be difficult to read if too many functions are nested as things are evaluated from the inside out. Readability can be mildly improved by enabling “rainbow parentheses” (open settings > Code > Display and check rainbow parentheses), but it’s still basically impossible to document and effectively convey your work with this method.

filter(select(surveys, plot_id, species_id, weight, year), year == 1995)

# A tibble: 1,180 × 4
   plot_id species_id weight  year
     <dbl> <chr>       <dbl> <dbl>
 1       2 NL             NA  1995
 2       2 NL            165  1995
 3       2 NL            171  1995
 4       2 NL             NA  1995
 5       2 DM             41  1995
 6       2 DM             45  1995
 7       2 DM             46  1995
 8       2 DM             49  1995
 9       2 DM             46  1995
10       2 DM             48  1995
# ℹ 1,170 more rows

The last option, pipes, are a fairly recent addition to R. Pipes let you take the output of one function and send it directly to the next, which is useful when you need to do many things to the same dataset. Pipes in R look like %>% and are made available via the magrittr package that also is included in the tidyverse. If you use RStudio, you can type the pipe with Ctrl/Cmd + Shift + M.

surveys %>% 
    select(., plot_id, species_id, weight, year) %>% 
    filter(., year == 1995)

# A tibble: 1,180 × 4
   plot_id species_id weight  year
     <dbl> <chr>       <dbl> <dbl>
 1       2 NL             NA  1995
 2       2 NL            165  1995
 3       2 NL            171  1995
 4       2 NL             NA  1995
 5       2 DM             41  1995
 6       2 DM             45  1995
 7       2 DM             46  1995
 8       2 DM             49  1995
 9       2 DM             46  1995
10       2 DM             48  1995
# ℹ 1,170 more rows

The . refers to the object that is passed from the previous line. In this example, the data frame surveys is passed to the . in the select() statement. Then, the modified data frame which is the result of the select() operation, is passed to the . in the filter() statement. Put more simply: whatever was the result from the line above the current line, will be used in the current line.

Since it gets a bit tedious to write out all the dots, dplyr allows for them to be omitted. By default, the pipe will pass its input to the first argument of the right hand side function; in dplyr, the first argument is always a data frame. The chunk below gives the same output as the one above:

surveys %>% 
    select(plot_id, species_id, weight, year) %>% 
    filter(year == 1995)

# A tibble: 1,180 × 4
   plot_id species_id weight  year
     <dbl> <chr>       <dbl> <dbl>
 1       2 NL             NA  1995
 2       2 NL            165  1995
 3       2 NL            171  1995
 4       2 NL             NA  1995
 5       2 DM             41  1995
 6       2 DM             45  1995
 7       2 DM             46  1995
 8       2 DM             49  1995
 9       2 DM             46  1995
10       2 DM             48  1995
# ℹ 1,170 more rows
…
Note that the final data frame is the leftmost part of this expression.

A single expression can also be used to filter for several criteria, either matching all criteria (&) or any criteria (|):

surveys %>% 
    filter(taxa == 'Rodent' & sex == 'F') %>% 
    select(sex, taxa)

# A tibble: 15,690 × 2
   sex   taxa  
   <chr> <chr> 
 1 F     Rodent
 2 F     Rodent
 3 F     Rodent
 4 F     Rodent
 5 F     Rodent
 6 F     Rodent
 7 F     Rodent
 8 F     Rodent
 9 F     Rodent
10 F     Rodent
# ℹ 15,680 more rows
…
3.6.2.1 Challenge

Using pipes, subset the survey data to include individuals collected before 1995 and retain only the columns year, sex, and weight.

3.6.3 Creating new columns with mutate

Frequently, you’ll want to create new columns based on the values in existing columns. For instance, you might want to do unit conversions, or find the ratio of values in two columns. For this we’ll use mutate().

To create a new column of weight in kg:

surveys %>%
    mutate(weight_kg = weight / 1000)

# A tibble: 34,786 × 14
   record_id month   day  year plot_id species_id sex   hindfoot_length weight
       <dbl> <dbl> <dbl> <dbl>   <dbl> <chr>      <chr>           <dbl>  <dbl>
 1         1     7    16  1977       2 NL         M                  32     NA
 2        72     8    19  1977       2 NL         M                  31     NA
 3       224     9    13  1977       2 NL         <NA>               NA     NA
 4       266    10    16  1977       2 NL         <NA>               NA     NA
 5       349    11    12  1977       2 NL         <NA>               NA     NA
 6       363    11    12  1977       2 NL         <NA>               NA     NA
 7       435    12    10  1977       2 NL         <NA>               NA     NA
 8       506     1     8  1978       2 NL         <NA>               NA     NA
 9       588     2    18  1978       2 NL         M                  NA    218
10       661     3    11  1978       2 NL         <NA>               NA     NA
# ℹ 34,776 more rows
# ℹ 5 more variables: genus <chr>, species <chr>, taxa <chr>, plot_type <chr>,
#   weight_kg <dbl>

You can also create a second new column based on the first new column within the same call of mutate():

surveys %>%
    mutate(weight_kg = weight / 1000,
           weight_kg2 = weight_kg * 2)

# A tibble: 34,786 × 15
   record_id month   day  year plot_id species_id sex   hindfoot_length weight
       <dbl> <dbl> <dbl> <dbl>   <dbl> <chr>      <chr>           <dbl>  <dbl>
 1         1     7    16  1977       2 NL         M                  32     NA
 2        72     8    19  1977       2 NL         M                  31     NA
 3       224     9    13  1977       2 NL         <NA>               NA     NA
 4       266    10    16  1977       2 NL         <NA>               NA     NA
 5       349    11    12  1977       2 NL         <NA>               NA     NA
 6       363    11    12  1977       2 NL         <NA>               NA     NA
 7       435    12    10  1977       2 NL         <NA>               NA     NA
 8       506     1     8  1978       2 NL         <NA>               NA     NA
 9       588     2    18  1978       2 NL         M                  NA    218
10       661     3    11  1978       2 NL         <NA>               NA     NA
# ℹ 34,776 more rows
# ℹ 6 more variables: genus <chr>, species <chr>, taxa <chr>, plot_type <chr>,
#   weight_kg <dbl>, weight_kg2 <dbl>

The first few rows of the output are full of NAs, so if we wanted to remove those we could insert a filter() in the chain:

surveys %>%
    filter(!is.na(weight)) %>%
    mutate(weight_kg = weight / 1000)

# A tibble: 32,283 × 14
   record_id month   day  year plot_id species_id sex   hindfoot_length weight
       <dbl> <dbl> <dbl> <dbl>   <dbl> <chr>      <chr>           <dbl>  <dbl>
 1       588     2    18  1978       2 NL         M                  NA    218
 2       845     5     6  1978       2 NL         M                  32    204
 3       990     6     9  1978       2 NL         M                  NA    200
 4      1164     8     5  1978       2 NL         M                  34    199
 5      1261     9     4  1978       2 NL         M                  32    197
 6      1453    11     5  1978       2 NL         M                  NA    218
 7      1756     4    29  1979       2 NL         M                  33    166
 8      1818     5    30  1979       2 NL         M                  32    184
 9      1882     7     4  1979       2 NL         M                  32    206
10      2133    10    25  1979       2 NL         F                  33    274
# ℹ 32,273 more rows
# ℹ 5 more variables: genus <chr>, species <chr>, taxa <chr>, plot_type <chr>,
#   weight_kg <dbl>
…
3.7.4 Wide to long with gather and pivot_longer

What if we had the opposite problem, and wanted to go from a wide to long format? For that, we can use pivot_longer() to gather a set of columns into one key-value pair. To go backwards from surveys_gw_wide, we should exclude plot_id.

pivot_longer() takes 4 arguments: the data, the names_to column variable that comes from the column names, the values_to column with the values, and cols which specifies which columns we want to keep or drop. Again, we will pipe from the dataset so we don’t have to specify the data argument:

surveys_gw_long2 <- surveys_gw_wide %>% 
  pivot_longer(names_to = "genus", values_to = "mean_weight", cols = -plot_id)

surveys_gw_long2

# A tibble: 240 × 3
   plot_id genus           mean_weight
     <dbl> <chr>                 <dbl>
 1       1 Baiomys                7   
 2       1 Chaetodipus           22.2 
 3       1 Dipodomys             60.2 
 4       1 Neotoma              156.  
 5       1 Onychomys             27.7 
 6       1 Perognathus            9.62
 7       1 Peromyscus            22.2 
 8       1 Reithrodontomys       11.4 
 9       1 Sigmodon              NA   
10       1 Spermophilus          NA   
# ℹ 230 more rows

If the columns are directly adjacent as they are here, we don’t even need to list the all out: we can just use the : operator, as before.

surveys_gw_wide %>% 
  pivot_longer(names_to = "genus", values_to = "mean_weight", cols = Baiomys:Sigmodon)

# A tibble: 216 × 4
   plot_id Spermophilus genus           mean_weight
     <dbl>        <dbl> <chr>                 <dbl>
 1       1           NA Baiomys                7   
 2       1           NA Chaetodipus           22.2 
 3       1           NA Dipodomys             60.2 
 4       1           NA Neotoma              156.  
 5       1           NA Onychomys             27.7 
 6       1           NA Perognathus            9.62
 7       1           NA Peromyscus            22.2 
 8       1           NA Reithrodontomys       11.4 
 9       1           NA Sigmodon              NA   
10       2           NA Baiomys                6   
# ℹ 206 more rows
…
3.7.5 Challenge

Starting with the surveys_gw_wide dataset, how would you display a new dataset that gathers the mean weight of all the genera (excluding NAs) except for the genus Perognathus?

surveys_gw_wide %>%
  pivot_longer(names_to = "genus", values_to = "mean_weight",
               cols = c(-plot_id, -Perognathus))

# A tibble: 216 × 4
   plot_id Perognathus genus           mean_weight
     <dbl>       <dbl> <chr>                 <dbl>
 1       1        9.62 Baiomys                 7  
 2       1        9.62 Chaetodipus            22.2
 3       1        9.62 Dipodomys              60.2
 4       1        9.62 Neotoma               156. 
 5       1        9.62 Onychomys              27.7
 6       1        9.62 Peromyscus             22.2
 7       1        9.62 Reithrodontomys        11.4
 8       1        9.62 Sigmodon               NA  
 9       1        9.62 Spermophilus           NA  
10       2        6.95 Baiomys                 6  
# ℹ 206 more rows
…
