EEB313: Quantitative Methods in R for Biology - 5 Data visualization with ggplot2
…
Great! Together with the genus plot, this definitely seems to explain most of the variation we see in the hindfoot length and weight measurements. It is still a bit messy as it appears like we have around five clusters of data points but there are 21 species in the legend.

surveys %>%
    filter(!is.na(hindfoot_length) & !is.na(weight)) %>%
    group_by(species) %>%
    tally() %>%
    arrange(desc(n))

# A tibble: 21 × 2
   species          n
   <chr>        <int>
 1 merriami      9739
 2 penicillatus  2978
 3 baileyi       2808
 4 ordii         2793
 5 megalotis     2429
 6 torridus      2085
 7 spectabilis   2026
 8 flavus        1471
 9 eremicus      1200
10 albigula      1046
# ℹ 11 more rows
…
(This is further illustrating the iterative nature of constructing plots)

5.3 Split-apply-combine… plot!

In this section, we will learn how to work with dplyr and ggplot together. Aided by the pipes (%>%), we can create a powerful data exploration workflow using these two packages.

Let’s calculate number of counts per year for each species. First, we need to group the data and count records within each group:

surveys_abun_species %>%
    group_by(year, species) %>%
    tally() %>%
    arrange(desc(n)) # Adding arrange just to compare with histogram

# A tibble: 275 × 3
# Groups:   year [26]
    year species      n
   <dbl> <chr>    <int>
 1  2002 baileyi    868
 2  1985 merriami   653
 3  1997 merriami   572
 4  2000 baileyi    545
 5  1982 merriami   532
 6  2001 baileyi    522
 7  1983 merriami   521
 8  1996 merriami   484
 9  1998 merriami   447
10  1990 merriami   425
# ℹ 265 more rows
…
Now we would like to split the line in each plot by the sex of each individual measured. To do that we need to make counts in the data frame after grouping by year, species, and sex:

surveys_abun_species %>%
    group_by(year, species, sex) %>%
    tally()

# A tibble: 575 × 4
# Groups:   year, species [275]
    year species     sex       n
   <dbl> <chr>       <chr> <int>
 1  1977 eremicus    M         2
 2  1977 flavus      F        14
 3  1977 flavus      M         8
 4  1977 leucogaster F         1
 5  1977 leucogaster <NA>      1
 6  1977 megalotis   F         1
 7  1977 megalotis   M         1
 8  1977 merriami    F        75
 9  1977 merriami    M       106
10  1977 ordii       F        10
# ℹ 565 more rows
…
