8 Probability, likelihood, and statistical inference – EEB313: Quantitative Methods in R for Biology
…
Rows: 34786 Columns: 13
── Column specification ────────────────────────────────────────────────────────
Delimiter: ","
chr (6): species_id, sex, genus, species, taxa, plot_type
dbl (7): record_id, month, day, year, plot_id, hindfoot_length, weight

ℹ Use `spec()` to retrieve the full column specification for this data.
ℹ Specify the column types or set `show_col_types = FALSE` to quiet this message.

Let’s look at which species might be a good candidate to choose for this analysis. We’ll start by filtering by species (keeping Genus information too), which suggests Dipodomys merriami (kangaroo rat) is most frequently observed

surveys %>% group_by(genus, species) %>% tally() %>% arrange(desc(n))

# A tibble: 48 × 3
# Groups:   genus [26]
   genus           species          n
   <chr>           <chr>        <int>
 1 Dipodomys       merriami     10596
 2 Chaetodipus     penicillatus  3123
 3 Dipodomys       ordii         3027
 4 Chaetodipus     baileyi       2891
 5 Reithrodontomys megalotis     2609
 6 Dipodomys       spectabilis   2504
 7 Onychomys       torridus      2249
 8 Perognathus     flavus        1597
 9 Peromyscus      eremicus      1299
10 Neotoma         albigula      1252
# ℹ 38 more rows

And we can see at least some evidence of difference in weigh by sex here

surveys %>% group_by(genus, species, sex) %>% 
  filter(!is.na(sex) & !is.na(weight)) %>% # remove rows with NA in either
  mutate(n_tot_species_sex=n()) %>% # new column containing total observations per species
  filter(n_tot_species_sex>50) %>%
  group_by(genus, species, sex) %>%
  summarize(mean_weight = mean(weight), na.rm = TRUE)

`summarise()` has grouped output by 'genus', 'species'. You can override using
the `.groups` argument.

# A tibble: 27 × 5
# Groups:   genus, species [14]
   genus       species      sex   mean_weight na.rm
   <chr>       <chr>        <chr>       <dbl> <lgl>
 1 Chaetodipus baileyi      F            30.2 TRUE 
 2 Chaetodipus baileyi      M            33.8 TRUE 
 3 Chaetodipus penicillatus F            17.2 TRUE 
 4 Chaetodipus penicillatus M            17.2 TRUE 
 5 Dipodomys   merriami     F            41.6 TRUE 
 6 Dipodomys   merriami     M            44.4 TRUE 
 7 Dipodomys   ordii        F            48.5 TRUE 
 8 Dipodomys   ordii        M            49.1 TRUE 
 9 Dipodomys   spectabilis  F           118.  TRUE 
10 Dipodomys   spectabilis  M           122.  TRUE 
# ℹ 17 more rows
…
