9 Introduction to linear regression models – EEB313: Quantitative Methods in R for Biology
…
Rows: 32 Columns: 2
── Column specification ────────────────────────────────────────────────────────
Delimiter: ","
dbl (2): proportionBlack, ageInYears

ℹ Use `spec()` to retrieve the full column specification for this data.
ℹ Specify the column types or set `show_col_types = FALSE` to quiet this message.

write_csv(lion, "data/lion.csv")

And take a look at what it contains. Since the dataset is small we can simply look through all the entries

lion

# A tibble: 32 × 2
   proportionBlack ageInYears
             <dbl>      <dbl>
 1            0.21        1.1
 2            0.14        1.5
 3            0.11        1.9
 4            0.13        2.2
 5            0.12        2.6
 6            0.13        3.2
 7            0.12        3.2
 8            0.18        2.9
 9            0.23        2.4
10            0.22        2.1
# ℹ 22 more rows
…
