4 Summarizing and visualizating data – EEB313: Quantitative Methods in R for Biology
…
ℹ Use `spec()` to retrieve the full column specification for this data.
ℹ Specify the column types or set `show_col_types = FALSE` to quiet this message.

(If you weren’t able to successfully save it last time, you can instead read it in directly from the website):

surveys <- readr::read_csv("https://ndownloader.figshare.com/files/2292169")

And let’s remind ourselves of the data structure by printing off a few of the entries

surveys[seq(1,nrow(surveys),1000),] # pick out every 1000th entry

# A tibble: 35 × 13
   record_id month   day  year plot_id species_id sex   hindfoot_length weight
       <dbl> <dbl> <dbl> <dbl>   <dbl> <chr>      <chr>           <dbl>  <dbl>
 1         1     7    16  1977       2 NL         M                  32     NA
 2      5282     1    25  1982       2 DS         M                  52     82
 3     13321     8    26  1987       2 AB         <NA>               NA     NA
 4     16167     6     4  1989       3 SH         F                  29     60
 5       121     8    21  1977      15 NL         <NA>               NA     NA
 6     35176    11    10  2002      15 PB         F                  26     36
 7     18921     8     7  1991      17 PF         F                  16      8
 8     32062     5    26  2001      17 PB         M                  27     29
 9     25542     4    12  1997      12 DM         F                  35     42
10     21937    12     4  1994      12 DO         M                  38     47
# ℹ 25 more rows
# ℹ 4 more variables: genus <chr>, species <chr>, taxa <chr>, plot_type <chr>
…
filtered_surveys <- surveys %>%
    filter(!is.na(weight) & !is.na(sex)) %>%
    group_by(genus, sex)

If you want to display more data, you can use the print() function at the end of your chain with the argument n specifying the number of rows to display.

filtered_surveys %>%
    summarize(mean_weight = mean(weight)) %>%
    print(n = 15) # Will change the knitted output, not the notebook

`summarise()` has grouped output by 'genus'. You can override using the
`.groups` argument.

# A tibble: 20 × 3
# Groups:   genus [10]
   genus           sex   mean_weight
   <chr>           <chr>       <dbl>
 1 Baiomys         F            9.16
 2 Baiomys         M            7.36
 3 Chaetodipus     F           23.8 
 4 Chaetodipus     M           24.7 
 5 Dipodomys       F           55.2 
 6 Dipodomys       M           56.2 
 7 Neotoma         F          154.  
 8 Neotoma         M          166.  
 9 Onychomys       F           26.8 
10 Onychomys       M           26.2 
11 Perognathus     F            8.57
12 Perognathus     M            8.20
13 Peromyscus      F           22.5 
14 Peromyscus      M           20.6 
15 Reithrodontomys F           11.2 
# ℹ 5 more rows
…
Here, tally() is the action applied to the groups created by group_by() and counts the total number of records for each category.

If there are many groups, tally() is not that useful on its own. For example, when we want to view the five most abundant species among the observations:

surveys %>%
    group_by(species) %>%
    tally()

# A tibble: 40 × 2
   species             n
   <chr>           <int>
 1 albigula         1252
 2 audubonii          75
 3 baileyi          2891
 4 bilineata         303
 5 brunneicapillus    50
 6 chlorurus          39
 7 clarki              1
 8 eremicus         1299
 9 flavus           1597
10 fulvescens         75
# ℹ 30 more rows

Since there are 40 rows in this output, we would like to order the table to display the most abundant species first. In dplyr, we say that we want to arrange() the data.

surveys %>%
    group_by(species) %>%
    tally() %>%
    arrange(n)

# A tibble: 40 × 2
   species          n
   <chr>        <int>
 1 clarki           1
 2 scutalatus       1
 3 tereticaudus     1
 4 tigris           1
 5 uniparens        1
 6 viridis          1
 7 leucophrys       2
 8 savannarum       2
 9 fuscus           5
10 undulatus        5
# ℹ 30 more rows
…
Great! Together with the genus plot, this definitely seems to explain most of the variation we see in the hindfoot length and weight measurements. It is still a bit messy as it appears like we have around five clusters of data points but there are 21 species in the legend.

surveys %>%
    filter(!is.na(hindfoot_length) & !is.na(weight)) %>%
    group_by(species) %>%
    tally() %>%
    arrange(desc(n))

# A tibble: 21 × 2
   species          n
   <chr>        <int>
 1 merriami      9739
 2 penicillatus  2978
 3 baileyi       2808
 4 ordii         2793
 5 megalotis     2429
 6 torridus      2085
 7 spectabilis   2026
 8 flavus        1471
 9 eremicus      1200
10 albigula      1046
# ℹ 11 more rows
…
