EEB313: Quantitative Methods in R for Biology - 11 Linear models II
…
Warning in qt(a, object$df.residual): NaNs produced

Warning in qt(a, object$df.residual): NaNs produced

Warning in qt(a, object$df.residual): NaNs produced

# get coefficients for each Order

Order_specific_models |>
  unnest()

Warning: `cols` is now required when using `unnest()`.
ℹ Please use `cols = c(model)`.

# A tibble: 30 × 8
   Order        term  estimate std.error statistic    p.value conf.low conf.high
   <chr>        <chr>    <dbl>     <dbl>     <dbl>      <dbl>    <dbl>     <dbl>
 1 Artiodactyla (Int…  11.5       0.965    11.9      3.06e- 7    9.37     13.7  
 2 Artiodactyla sexM    0.0327    1.37      0.0239   9.81e- 1   -3.01      3.07 
 3 Carnivora    (Int…   7.68      0.428    17.9      1.27e-14    6.79      8.57 
 4 Carnivora    sexM    0.320     0.606     0.529    6.02e- 1   -0.936     1.58 
 5 Chiroptera   (Int…   2.76      0.0993   27.8      1.07e-72    2.57      2.96 
 6 Chiroptera   sexM   -0.0484    0.140    -0.345    7.30e- 1   -0.325     0.228
 7 Cingulata    (Int…  10.4     NaN       NaN      NaN         NaN       NaN    
 8 Cingulata    sexM    0.0908  NaN       NaN      NaN         NaN       NaN    
 9 Dasyuromorp… (Int…   7.44    NaN       NaN      NaN         NaN       NaN    
10 Dasyuromorp… sexM    0.499   NaN       NaN      NaN         NaN       NaN    
# ℹ 20 more rows
…
