10 Advanced linear models - generalized and multilevel – EEB313: Quantitative Methods in R for Biology
…
sparrow <- read_csv("https://www.zoology.ubc.ca/~bio501/R/data/songsparrow.csv")

Rows: 145 Columns: 9
── Column specification ────────────────────────────────────────────────────────
Delimiter: ","
dbl (8): mass, wing, tarsus, blength, bdepth, bwidth, year, survival
lgl (1): sex

ℹ Use `spec()` to retrieve the full column specification for this data.
ℹ Specify the column types or set `show_col_types = FALSE` to quiet this message.

sparrow

# A tibble: 145 × 9
    mass  wing tarsus blength bdepth bwidth  year sex   survival
   <dbl> <dbl>  <dbl>   <dbl>  <dbl>  <dbl> <dbl> <lgl>    <dbl>
 1  23.7  67     17.7     9.1    5.9    6.8  1978 FALSE        1
 2  23.1  65     19.5     9.5    5.9    7    1978 FALSE        0
 3  21.8  65.2   19.6     8.7    6      6.7  1978 FALSE        0
 4  21.7  66     18.2     8.4    6.2    6.8  1978 FALSE        1
 5  22.5  64.3   19.5     8.5    5.8    6.6  1978 FALSE        1
 6  22.9  65.8   19.6     8.9    5.8    6.6  1978 FALSE        1
 7  21.9  66.8   19.7     8.6    6      6.7  1978 FALSE        1
 8  22.6  65.8   20.5     8.2    5.5    6.8  1978 FALSE        1
 9  22.2  63.8   19.3     8.8    5.6    6.5  1978 FALSE        0
10  21.4  62.6   19       8.1    5.7    6.6  1978 FALSE        0
# ℹ 135 more rows
…
forest_fires <- read_csv(
  "https://raw.githubusercontent.com/das-amlan/Forest-Fire-Prediction/refs/heads/main/forest_fires.csv",
)

Rows: 243 Columns: 15
── Column specification ────────────────────────────────────────────────────────
Delimiter: ","
dbl (15): day, month, year, Temperature, RH, Ws, Rain, FFMC, DMC, DC, ISI, B...

ℹ Use `spec()` to retrieve the full column specification for this data.
ℹ Specify the column types or set `show_col_types = FALSE` to quiet this message.

forest_fires

# A tibble: 243 × 15
     day month  year Temperature    RH    Ws  Rain  FFMC   DMC    DC   ISI   BUI
   <dbl> <dbl> <dbl>       <dbl> <dbl> <dbl> <dbl> <dbl> <dbl> <dbl> <dbl> <dbl>
 1     1     6  2012          29    57    18   0    65.7   3.4   7.6   1.3   3.4
 2     2     6  2012          29    61    13   1.3  64.4   4.1   7.6   1     3.9
 3     3     6  2012          26    82    22  13.1  47.1   2.5   7.1   0.3   2.7
 4     4     6  2012          25    89    13   2.5  28.6   1.3   6.9   0     1.7
 5     5     6  2012          27    77    16   0    64.8   3    14.2   1.2   3.9
 6     6     6  2012          31    67    14   0    82.6   5.8  22.2   3.1   7  
 7     7     6  2012          33    54    13   0    88.2   9.9  30.5   6.4  10.9
 8     8     6  2012          30    73    15   0    86.6  12.1  38.3   5.6  13.5
 9     9     6  2012          25    88    13   0.2  52.9   7.9  38.8   0.4  10.5
10    10     6  2012          28    79    12   0    73.2   9.5  46.3   1.3  12.6
# ℹ 233 more rows
# ℹ 3 more variables: FWI <dbl>, Classes <dbl>, Region <dbl>
…
