5 Lecture 5: Advanced data manipulation & visualization – EEB313: Quantitative Methods in R for Biology
…
surveys <- readr::read_csv('data/portal_data.csv')

Rows: 34786 Columns: 13
── Column specification ────────────────────────────────────────────────────────
Delimiter: ","
chr (6): species_id, sex, genus, species, taxa, plot_type
dbl (7): record_id, month, day, year, plot_id, hindfoot_length, weight

ℹ Use `spec()` to retrieve the full column specification for this data.
ℹ Specify the column types or set `show_col_types = FALSE` to quiet this message.

surveys

# A tibble: 34,786 × 13
   record_id month   day  year plot_id species_id sex   hindfoot_length weight
       <dbl> <dbl> <dbl> <dbl>   <dbl> <chr>      <chr>           <dbl>  <dbl>
 1         1     7    16  1977       2 NL         M                  32     NA
 2        72     8    19  1977       2 NL         M                  31     NA
 3       224     9    13  1977       2 NL         <NA>               NA     NA
 4       266    10    16  1977       2 NL         <NA>               NA     NA
 5       349    11    12  1977       2 NL         <NA>               NA     NA
 6       363    11    12  1977       2 NL         <NA>               NA     NA
 7       435    12    10  1977       2 NL         <NA>               NA     NA
 8       506     1     8  1978       2 NL         <NA>               NA     NA
 9       588     2    18  1978       2 NL         M                  NA    218
10       661     3    11  1978       2 NL         <NA>               NA     NA
# ℹ 34,776 more rows
# ℹ 4 more variables: genus <chr>, species <chr>, taxa <chr>, plot_type <chr>
…
5.3 More plot types

In this section, we’ll explore a few more types of plots we can make in ggplot.

Let’s calculate number of counts per year for each species. First, we need to group the data and count records within each group:

surveys_abun_species %>%
    group_by(year, genus_species) %>%
    tally() %>%
    arrange(desc(n)) # Adding arrange just to compare with histogram

# A tibble: 275 × 3
# Groups:   year [26]
    year genus_species           n
   <dbl> <chr>               <int>
 1  2002 Chaetodipus baileyi   868
 2  1985 Dipodomys merriami    653
 3  1997 Dipodomys merriami    572
 4  2000 Chaetodipus baileyi   545
 5  1982 Dipodomys merriami    532
 6  2001 Chaetodipus baileyi   522
 7  1983 Dipodomys merriami    521
 8  1996 Dipodomys merriami    484
 9  1998 Dipodomys merriami    447
10  1990 Dipodomys merriami    425
# ℹ 265 more rows
…
Now we would like to split the line in each plot by the sex of each individual measured. To do that we need to make counts in the data frame after grouping by year, species, and sex:

surveys_abun_species %>%
    group_by(year, species, sex) %>%
    tally()

# A tibble: 575 × 4
# Groups:   year, species [275]
    year species     sex       n
   <dbl> <chr>       <chr> <int>
 1  1977 eremicus    M         2
 2  1977 flavus      F        14
 3  1977 flavus      M         8
 4  1977 leucogaster F         1
 5  1977 leucogaster <NA>      1
 6  1977 megalotis   F         1
 7  1977 megalotis   M         1
 8  1977 merriami    F        75
 9  1977 merriami    M       106
10  1977 ordii       F        10
# ℹ 565 more rows
…
5.5.4 Wide to long with gather and pivot_longer

What if we had the opposite problem, and wanted to go from a wide to long format? For that, we can use pivot_longer() to gather a set of columns into one key-value pair. To go backwards from surveys_gw_wide, we should exclude plot_id.

pivot_longer() takes 4 arguments: the data, the names_to column variable that comes from the column names, the values_to column with the values, and cols which specifies which columns we want to keep or drop. Again, we will pipe from the dataset so we don’t have to specify the data argument:

surveys_gw_long2 <- surveys_gw_wide %>% 
  pivot_longer(names_to = "genus", values_to = "mean_weight", cols = -plot_id)

surveys_gw_long2

# A tibble: 240 × 3
   plot_id genus           mean_weight
     <dbl> <chr>                 <dbl>
 1       1 Baiomys                7   
 2       1 Chaetodipus           22.2 
 3       1 Dipodomys             60.2 
 4       1 Neotoma              156.  
 5       1 Onychomys             27.7 
 6       1 Perognathus            9.62
 7       1 Peromyscus            22.2 
 8       1 Reithrodontomys       11.4 
 9       1 Sigmodon              NA   
10       1 Spermophilus          NA   
# ℹ 230 more rows

If the columns are directly adjacent as they are here, we don’t even need to list the all out: we can just use the : operator, as before.

surveys_gw_wide %>% 
  pivot_longer(names_to = "genus", values_to = "mean_weight", cols = Baiomys:Sigmodon)

# A tibble: 216 × 4
   plot_id Spermophilus genus           mean_weight
     <dbl>        <dbl> <chr>                 <dbl>
 1       1           NA Baiomys                7   
 2       1           NA Chaetodipus           22.2 
 3       1           NA Dipodomys             60.2 
 4       1           NA Neotoma              156.  
 5       1           NA Onychomys             27.7 
 6       1           NA Perognathus            9.62
 7       1           NA Peromyscus            22.2 
 8       1           NA Reithrodontomys       11.4 
 9       1           NA Sigmodon              NA   
10       2           NA Baiomys                6   
# ℹ 206 more rows
…
